…
``` r
comparison_table = left_join(nested_adjusetd_homicide, nested_unadj_homicide, by = "city_state") %>% 
  mutate(
    City = row.names(.), 
    OR.x = color_tile("red", "white") (OR.x)
    
  )


comparison_table
```

    ## # A tibble: 47 x 8
    ##    city_state  OR.x     ci.high.x ci.low.x   OR.y ci.high.y ci.low.y City 
    ##    <chr>       <chr>        <dbl>    <dbl>  <dbl>     <dbl>    <dbl> <chr>
    ##  1 Albuquerqu… "<span …     1.22    0.445  0.807      1.30    0.499  1    
    ##  2 Atlanta, GA "<span …     1.30    0.424  0.835      1.42    0.476  2    
    ##  3 Baltimore,… "<span …     0.620   0.312  0.386      0.534   0.278  3    
    ##  4 Baton Roug… "<span …     1.41    0.304  0.581      1.18    0.273  4    
    ##  5 Birmingham… "<span …     1.75    0.612  1.13       1.88    0.675  5    
    ##  6 Boston, MA  "<span …     0.285   0.0472 0.0982     0.215   0.0372 6    
    ##  7 Buffalo, NY "<span …     0.714   0.211  0.351      0.619   0.194  7    
    ##  8 Charlotte,… "<span …     0.951   0.313  0.581      0.960   0.336  8    
    ##  9 Chicago, IL "<span …     0.734   0.432  0.482      0.623   0.373  9    
    ## 10 Cincinnati… "<span …     0.541   0.180  0.310      0.514   0.180  10   
    ## # ... with 37 more rows
…
